<svg id="Layer_1" data-name="Layer 1" xmlns="http://www.w3.org/2000/svg" viewBox="0 0 350 144"><title>logo-horizontalArtboard 1</title><path d="M161.21,79.36a2.87,2.87,0,0,1,.38-3.41l13.17-13.61c1.5-1.55-.66-1.55-.66-1.55H161.8a5.49,5.49,0,0,0-3.65,1.57L145.93,75.31c-1.48,1.57-1.48-.59-1.48-.59V46.42a2.12,2.12,0,0,0-2.16-2.16H133a2,2,0,0,0-2.08,2.08v59.21a2.12,2.12,0,0,0,2.16,2.16h9.24a2,2,0,0,0,2.08-2.08V95.22a5.47,5.47,0,0,1,1.58-3.64l4.36-4.09,10.94,18.36a4.05,4.05,0,0,0,3.27,1.86h11.67c2.16,0,1-1.85,1-1.85l-16-26.5Zm-40,26.18V62.87A2.12,2.12,0,0,0,119,60.7h-9.34a2.12,2.12,0,0,0-2.16,2.16v42.68a2.12,2.12,0,0,0,2.16,2.16H119a2.12,2.12,0,0,0,2.16-2.16Zm-.35-53.13V46.31a2,2,0,0,0-2.08-2.08h-9.15a2,2,0,0,0-2.08,2.08v6.11a2,2,0,0,0,2.08,2.08h9.15a2,2,0,0,0,2.08-2.08ZM97.44,105.55V46.42a2.12,2.12,0,0,0-2.16-2.16H85.76a2.12,2.12,0,0,0-2.16,2.16v59.13a2.12,2.12,0,0,0,2.16,2.16h9.52a2.12,2.12,0,0,0,2.16-2.16ZM76,103a1.81,1.81,0,0,0-.18-2.61l-7.64-6.64a31.88,31.88,0,1,0-8.94,8.79l8.38,7.28a1.81,1.81,0,0,0,2.61-.18L76,103ZM60.24,76A18.33,18.33,0,1,1,41.9,57.65,18.33,18.33,0,0,1,60.24,76Z" style="fill:#5f6062"/><path d="M281.64,107.36l-11.58-9.72a41.39,41.39,0,1,0-11.19,11.77l12.35,10.37a2.35,2.35,0,0,0,3.38-.3l7.34-8.75a2.35,2.35,0,0,0-.3-3.38Zm-21.16-31.8A25.44,25.44,0,1,1,235,50.12a25.44,25.44,0,0,1,25.44,25.44Z" style="fill:#6cb33f"/><path d="M218.74,75.56A16.31,16.31,0,1,1,235,91.87a16.31,16.31,0,0,1-16.31-16.31Z" style="fill:#5f6062"/><path d="M280.36,47.44a4,4,0,1,1,4,4A4,4,0,0,1,280.36,47.44Zm4-3.44a3.44,3.44,0,1,0,3.33,3.44A3.35,3.35,0,0,0,284.33,44Zm-.91,5.85h-.53V45h1.75a1.31,1.31,0,0,1,1.48,1.34A1.23,1.23,0,0,1,285,47.69l1.36,2.15h-.66l-1.28-2.15h-1Zm0-2.62h1.09c.64,0,1.08-.14,1.08-.88s-.48-.87-1.08-.87h-1.09Z" style="fill:#abafad"/>



<line x1="337.71" y1="46.92" x2="337.71" y2="107.62" style="fill:none;stroke:#dfe0df;stroke-linecap:round;stroke-linejoin:round;stroke-width:4px"/></svg>